{
  "name": "Mobile",
  "plural": "mobiles",
  "base": "PersistedModel",
  "idInjection": true,
  "options": {
    "validateUpsert": true
  },
  "properties": {
    "Make": {
      "type": "string",
      "required": true,
      "default": "Nokia"
    },
    "Model": {
      "type": "string",
      "default": "1100"
    },
    "Screen_size": {
      "type": "number",
      "default": 4.5
    }
  },
  "validations": [],
  "relations": {},
  "acls": [],
  "methods": {}
}
